<svg xmlns="http://www.w3.org/2000/svg" width="120.35" height="131.23" viewBox="0 0 120.35 131.23">
	<style type="text/css">
		.st0{fill:#000000;}
	</style>
	<path class="st0" d="M109.46,46.64L10.88,46.64L10.88,25.41C10.88,23.42 12.53,21.76 14.53,21.76L27.3,21.76L27.3,30.31C27.3,33.3 29.73,35.75 32.74,35.75C35.73,35.75 38.18,33.3 38.18,30.31L38.18,21.76L82.16,21.76L82.16,30.31C82.16,33.3 84.61,35.75 87.6,35.75C90.61,35.75 93.04,33.3 93.04,30.31L93.04,21.76L105.82,21.76C107.81,21.76 109.46,23.42 109.46,25.41L109.46,46.64ZM109.46,116.7C109.46,118.69 107.81,120.35 105.82,120.35L14.53,120.35C12.53,120.35 10.88,118.69 10.88,116.7L10.88,57.52L109.46,57.52ZM105.82,10.88L93.04,10.88L93.04,5.44C93.04,2.44 90.61,0 87.6,0C84.61,0 82.16,2.44 82.16,5.44L82.16,10.88L38.18,10.88L38.18,5.44C38.18,2.44 35.73,0 32.74,0C29.73,0 27.3,2.44 27.3,5.44L27.3,10.88L14.53,10.88C6.53,10.88 0,17.41 0,25.41L0,116.7C0,124.7 6.53,131.23 14.53,131.23L105.82,131.23C113.82,131.23 120.35,124.7 120.35,116.7L120.35,25.41C120.35,17.41 113.82,10.88 105.82,10.88"/>
	<path class="st0" d="M34.21,82.39L33.3,82.39C30.29,82.39 27.86,79.96 27.86,76.95C27.86,73.94 30.29,71.51 33.3,71.51L34.21,71.51C37.21,71.51 39.65,73.94 39.65,76.95C39.65,79.96 37.21,82.39 34.21,82.39"/>
	<path class="st0" d="M60.8,82.39L59.54,82.39C56.53,82.39 54.09,79.96 54.09,76.95C54.09,73.94 56.53,71.51 59.54,71.51L60.8,71.51C63.81,71.51 66.25,73.94 66.25,76.95C66.25,79.96 63.81,82.39 60.8,82.39"/>
	<path class="st0" d="M87.04,82.39L86.13,82.39C83.13,82.39 80.69,79.96 80.69,76.95C80.69,73.94 83.13,71.51 86.13,71.51L87.04,71.51C90.05,71.51 92.48,73.94 92.48,76.95C92.48,79.96 90.05,82.39 87.04,82.39"/>
	<path class="st0" d="M34.21,108.7L33.3,108.7C30.29,108.7 27.86,106.26 27.86,103.26C27.86,100.25 30.29,97.81 33.3,97.81L34.21,97.81C37.21,97.81 39.65,100.25 39.65,103.26C39.65,106.26 37.21,108.7 34.21,108.7"/>
	<path class="st0" d="M60.8,108.7L59.54,108.7C56.53,108.7 54.09,106.26 54.09,103.26C54.09,100.25 56.53,97.81 59.54,97.81L60.8,97.81C63.81,97.81 66.25,100.25 66.25,103.26C66.25,106.26 63.81,108.7 60.8,108.7"/>
	<path class="st0" d="M87.04,108.7L86.13,108.7C83.13,108.7 80.69,106.26 80.69,103.26C80.69,100.25 83.13,97.81 86.13,97.81L87.04,97.81C90.05,97.81 92.48,100.25 92.48,103.26C92.48,106.26 90.05,108.7 87.04,108.7"/>
</svg>